<?xml version="1.0" standalone="no"?>
<!DOCTYPE svg PUBLIC "-//W3C//DTD SVG 20010904//EN"
 "http://www.w3.org/TR/2001/REC-SVG-20010904/DTD/svg10.dtd">
<svg version="1.0" xmlns="http://www.w3.org/2000/svg"
 width="704.000000pt" height="704.000000pt" viewBox="0 0 704.000000 704.000000"
 preserveAspectRatio="xMidYMid meet">
<metadata>
Created by potrace 1.11, written by Peter Selinger 2001-2013
</metadata>
<g transform="translate(0.000000,704.000000) scale(0.100000,-0.100000)"
fill="#000000" stroke="none">
<path d="M350 6645 l0 -394 394 0 394 -1 0 395 0 395 -394 0 -394 0 0 -395z"/>
<path d="M2588 7028 c-3 -11 -3 -2463 1 -2508 1 -13 51 -15 388 -14 214 1 390
2 393 3 3 0 5 569 5 1263 l0 1263 -391 3 c-308 2 -393 0 -396 -10z"/>
<path d="M372 5462 l-23 -4 4 -646 c2 -356 7 -663 11 -682 26 -115 112 -327
138 -338 5 -2 8 -10 8 -18 0 -8 5 -14 10 -14 6 0 10 -5 10 -11 0 -18 100 -132
166 -189 82 -71 270 -175 353 -196 9 -2 45 -11 81 -20 59 -15 213 -17 1591
-19 l1526 -2 1 393 0 394 -1487 2 c-1413 3 -1488 4 -1518 21 -18 10 -42 30
-53 45 -11 15 -24 32 -29 38 -20 25 -23 102 -23 653 0 317 -3 581 -6 587 -6 8
-703 14 -760 6z"/>
<path d="M5063 4112 c-19 -3 -23 -10 -24 -40 0 -20 -1 -197 -1 -392 l-1 -355
329 -1 c181 -1 352 -4 380 -8 64 -9 119 -52 145 -113 18 -43 19 -87 19 -1149
0 -976 -2 -1109 -16 -1142 -25 -61 -74 -104 -134 -119 -8 -2 -515 -4 -1125 -4
l-1111 -1 -39 22 c-46 25 -70 51 -92 100 -14 31 -16 141 -17 1025 l-1 990
-392 0 -393 1 -1 -31 c-4 -191 0 -1999 5 -2025 42 -242 121 -409 267 -561 63
-65 195 -169 215 -169 8 0 14 -4 14 -8 0 -15 206 -98 270 -108 19 -3 55 -10
80 -14 25 -5 569 -9 1210 -9 1109 0 1169 1 1255 19 234 50 453 183 580 355 17
22 32 42 35 45 19 17 94 157 117 220 15 41 39 129 50 185 4 22 8 580 8 1240 0
1140 -1 1204 -19 1270 -10 39 -20 77 -21 85 -2 8 -4 16 -5 18 -2 1 -3 5 -5 10
-1 4 -11 29 -23 55 -12 27 -22 50 -22 52 0 6 -73 129 -79 135 -3 3 -19 23 -36
45 -107 144 -307 280 -490 333 -115 34 -127 35 -450 38 -170 2 -344 5 -385 7
-41 1 -85 1 -97 -1z"/>
</g>
</svg>
