<svg xmlns="http://www.w3.org/2000/svg" viewBox="0 0 459 459">
  <defs>
    <style>
      .cls-1 {
        fill: #ff9500;
        fill-rule: evenodd;
      }
    </style>
  </defs>
  <title>Design elements-icons</title>
  <g id="Layer_3" data-name="Layer 3">
    <path class="cls-1" d="M270.51,229.5,458.25,41.76a2.57,2.57,0,0,0,0-3.63L420.87.75a2.57,2.57,0,0,0-3.63,0L229.5,188.49,41.76.75a2.57,2.57,0,0,0-3.63,0L.75,38.13a2.57,2.57,0,0,0,0,3.63L188.49,229.5.75,417.24a2.57,2.57,0,0,0,0,3.63l37.38,37.38a2.57,2.57,0,0,0,3.63,0L229.5,270.51,417.24,458.25a2.57,2.57,0,0,0,3.63,0l37.38-37.38a2.57,2.57,0,0,0,0-3.63Z"/>
  </g>
</svg>
