<svg xmlns="http://www.w3.org/2000/svg" viewBox="0 0 28.28 26.39">
  <defs>
    <style>
      .cls-1 {
        fill: #0e2766;
      }
    </style>
  </defs>
  <title>Design elements-icons</title>
  <g id="Layer_2" data-name="Layer 2">
    <path class="cls-1" d="M2.48,23.91a8.49,8.49,0,0,1,0-12L14.06.33a1.13,1.13,0,0,1,1.6,1.6L4.08,13.51a6.22,6.22,0,0,0,8.8,8.8l12-12a4,4,0,0,0-5.6-5.6L8.08,15.91a1.7,1.7,0,0,0,2.4,2.4L21.26,7.53a1.13,1.13,0,0,1,1.6,1.6L12.08,19.91a4,4,0,0,1-5.6-5.6L17.66,3.13a6.22,6.22,0,0,1,8.8,8.8l-12,12A8.49,8.49,0,0,1,2.48,23.91Z"/>
  </g>
</svg>
