<svg xmlns="http://www.w3.org/2000/svg" viewBox="0 0 21.85 22.64">
  <defs>
    <style>
      .cls-1 {
        fill: #cbccd0;
      }
    </style>
  </defs>
  <title>-</title>
  <g id="Layer_2" data-name="Layer 2">
    <path class="cls-1" d="M20.7,22.64a1.15,1.15,0,0,1-.83-.36l-5.48-5.7A9.14,9.14,0,1,1,16.09,15l5.44,5.66a1.15,1.15,0,0,1-.83,1.95Zm-.25-.91h0Zm.51-.49Zm0,0h0ZM9.13,2.3A6.83,6.83,0,1,0,16,9.13,6.84,6.84,0,0,0,9.13,2.3Z"/>
  </g>
</svg>
