<svg xmlns="http://www.w3.org/2000/svg" viewBox="0 0 95.67 95.67">
  <defs>
    <style>
      .cls-1 {
        fill: #ff9500;
      }
    </style>
  </defs>
  <title> </title>
  <g id="Layer_2" data-name="Layer 2">
    <g>
      <path class="cls-1" d="M72.65,49.63A23.14,23.14,0,0,0,49.73,70.54H45.94a22.82,22.82,0,0,0-5.23-12.6L57.93,40.72A23,23,0,0,0,94.23,15a2.11,2.11,0,0,0-2.71-1.24,2.11,2.11,0,0,0-1.24,2.71,18.85,18.85,0,0,1-2.09,17.16,18.64,18.64,0,0,0-8.47-7.52,10.47,10.47,0,1,0-14.13,0,18.63,18.63,0,0,0-8.47,7.52A18.81,18.81,0,0,1,80.22,5.8a2.11,2.11,0,1,0,1.7-3.86A23,23,0,0,0,55,37.74L37.73,55a22.82,22.82,0,0,0-12.6-5.23V45.94A23,23,0,1,0,0,23,23.14,23.14,0,0,0,20.91,45.94v3.78a23,23,0,1,0,25,25h3.78A23,23,0,1,0,72.65,49.63Zm0-37.51a6.26,6.26,0,0,1,0,12.51h-.06a6.26,6.26,0,0,1,0-12.51Zm0,16.73v0h.07A14,14,0,0,1,85.23,37a18.8,18.8,0,0,1-25.15,0A14,14,0,0,1,72.61,28.85ZM7.49,33.6A18.8,18.8,0,1,1,41.82,23a18.65,18.65,0,0,1-3.27,10.59,18.64,18.64,0,0,0-8.47-7.51A10.47,10.47,0,1,0,16,26.1,18.64,18.64,0,0,0,7.49,33.6ZM29.28,18.37A6.27,6.27,0,0,1,23,24.63H23a6.26,6.26,0,1,1,6.3-6.25ZM10.45,37A14,14,0,0,1,23,28.85h0V28.6l0,.25A14,14,0,0,1,35.59,37a18.76,18.76,0,0,1-25.14,0ZM23,91.45a18.8,18.8,0,1,1,18.8-18.8A18.82,18.82,0,0,1,23,91.45Zm49.63,0a18.74,18.74,0,0,1-12.57-4.84,13.78,13.78,0,0,1,25.14,0A18.74,18.74,0,0,1,72.65,91.45ZM66.4,68a6.26,6.26,0,1,1,6.26,6.26A6.26,6.26,0,0,1,66.4,68ZM88.18,83.24a18.64,18.64,0,0,0-8.47-7.51,10.47,10.47,0,1,0-14.13,0,18.64,18.64,0,0,0-8.47,7.51,18.8,18.8,0,1,1,31.06,0Z"/>
      <path class="cls-1" d="M33,62.53a2.11,2.11,0,0,0-2.92.58L20.57,77.41l-4.71-6.06a2.11,2.11,0,0,0-3.33,2.59L19,82.31a2.1,2.1,0,0,0,1.66.81h.08a2.11,2.11,0,0,0,1.68-.94L33.6,65.46A2.11,2.11,0,0,0,33,62.53Z"/>
      <circle class="cls-1" cx="87.86" cy="8.67" r="2.11"/>
    </g>
  </g>
</svg>
