<svg xmlns="http://www.w3.org/2000/svg" viewBox="0 0 119.93 92.93">
  <defs>
    <style>
      .cls-1 {
        fill: #ff9500;
      }
    </style>
  </defs>
  <title> </title>
  <g id="Layer_2" data-name="Layer 2">
    <g id="_Group_" data-name="&lt;Group&gt;">
      <g id="_Group_2" data-name="&lt;Group&gt;">
        <path id="_Compound_Path_" data-name="&lt;Compound Path&gt;" class="cls-1" d="M119.18,31.58l-3.12-5.41A2.34,2.34,0,0,0,112,28.51l3.12,5.41a.91.91,0,0,1-.33,1.25l-8.26,4.77a.92.92,0,0,1-1.25-.33L88.66,10.82A.92.92,0,0,1,89,9.58l8.26-4.77a.92.92,0,0,1,1.25.33l3,5.12a2.34,2.34,0,0,0,4.06-2.34l-3-5.12a5.61,5.61,0,0,0-7.65-2L86.65,5.52a5.58,5.58,0,0,0-2.53,3.15H60.7A12.23,12.23,0,0,0,52,12.27l-2.4,2.4a27.71,27.71,0,0,0-6.43-.76H35.9a5.58,5.58,0,0,0-2.62-3.45L25,5.7a5.6,5.6,0,0,0-7.65,2L.75,36.53a5.6,5.6,0,0,0,2,7.65l8.26,4.77a5.56,5.56,0,0,0,2.79.75,5.64,5.64,0,0,0,1-.1l6.76,6.76A8.52,8.52,0,0,0,21.49,58a8.42,8.42,0,0,0,8,8.41,8.56,8.56,0,0,0,0,.89,8.43,8.43,0,0,0,8.43,8.43H38c0,.06,0,.12,0,.18a8.43,8.43,0,0,0,8.43,8.43h.18c0,.06,0,.12,0,.18a8.43,8.43,0,0,0,14.39,6l3.33-3.33a8.37,8.37,0,0,0,2.06-3.37,8.43,8.43,0,0,0,13-4.28,8.43,8.43,0,0,0,12.85-5.36,8.43,8.43,0,0,0,8.62-14l-5.47-5.47,10-10a5.64,5.64,0,0,0,.67,0,5.57,5.57,0,0,0,2.79-.75l8.26-4.77a5.6,5.6,0,0,0,2-7.65Zm-114,8.54a.91.91,0,0,1-.33-1.25L21.43,10.09A.91.91,0,0,1,22,9.66a.94.94,0,0,1,.24,0,.9.9,0,0,1,.45.12l8.26,4.77a.92.92,0,0,1,.33,1.25L14.65,44.56a.92.92,0,0,1-1.25.33ZM26.17,58a3.72,3.72,0,0,1,1.1-2.65l2-2a3.74,3.74,0,1,1,5.29,5.29l-2,2A3.74,3.74,0,0,1,26.17,58ZM37.82,71a3.74,3.74,0,0,1-2.65-6.39l3.33-3.33a3.74,3.74,0,1,1,5.29,5.29l-3.33,3.33A3.72,3.72,0,0,1,37.82,71Zm8.6,8.61a3.74,3.74,0,0,1-2.65-6.39l3.33-3.33a3.74,3.74,0,1,1,5.29,5.29l-3.33,3.33A3.72,3.72,0,0,1,46.43,79.64ZM61,83.82l-3.33,3.33a3.74,3.74,0,1,1-5.29-5.29l3.33-3.33A3.74,3.74,0,1,1,61,83.82ZM97.59,68.76a3.74,3.74,0,0,1-5.29,0L69.94,46.4a2.34,2.34,0,1,0-3.31,3.31L86.68,69.77a3.74,3.74,0,1,1-5.29,5.29L57.29,51A2.34,2.34,0,0,0,54,54.28L74,74.33a3.74,3.74,0,0,1-5.29,5.29l-4.41-4.41,0,0a8.4,8.4,0,0,0-6.12-2.44c0-.06,0-.12,0-.19a8.42,8.42,0,0,0-8.61-8.42c0-.06,0-.12,0-.19a8.42,8.42,0,0,0-9.23-8.38A8.43,8.43,0,0,0,26,50l-2,2h0l-5.2-5.2L35.05,18.6h8.12a23,23,0,0,1,2.38.12L42.87,21.4A8.43,8.43,0,0,0,54.79,33.32L61.11,27,97.59,63.47a3.75,3.75,0,0,1,0,5.29ZM75.08,34.34a13.29,13.29,0,0,0,5.5-10.77,2.34,2.34,0,1,0-4.68,0A8.61,8.61,0,0,1,71.7,31L62.78,22a2.34,2.34,0,0,0-3.31,0l-8,8a3.74,3.74,0,1,1-5.29-5.29l9.13-9.13a7.58,7.58,0,0,1,5.39-2.23h24L101.22,42l.12.2-9.23,9.23Z"/>
        <path id="_Path_" data-name="&lt;Path&gt;" class="cls-1" d="M108.76,20.56a2.34,2.34,0,1,0-1.66-.69A2.36,2.36,0,0,0,108.76,20.56Z"/>
      </g>
    </g>
  </g>
</svg>
