<svg xmlns="http://www.w3.org/2000/svg" viewBox="0 0 22.42 16.95">
  <defs>
    <style>
      .cls-1 {
        fill: #0e2766;
      }
    </style>
  </defs>
  <title>1</title>
  <g id="Layer_2" data-name="Layer 2">
    <g>
      <path class="cls-1" d="M13.29,7.81,21.05,0a1.65,1.65,0,0,0-.39,0H1.76a1.65,1.65,0,0,0-.39,0l9.8,9.8Z"/>
      <path class="cls-1" d="M15.26,8.48l7.11,7.11a1.65,1.65,0,0,0,0-.39V1.76a1.66,1.66,0,0,0,0-.39Z"/>
      <path class="cls-1" d="M0,1.37a1.65,1.65,0,0,0,0,.39V15.2a1.66,1.66,0,0,0,0,.39L7.16,8.48Z"/>
      <path class="cls-1" d="M11.82,11.83a1,1,0,0,1-1.31,0l-2-2L1.36,16.91a1.65,1.65,0,0,0,.39,0H20.66a1.65,1.65,0,0,0,.39,0L13.94,9.79Z"/>
    </g>
  </g>
</svg>
