<svg id="Images" xmlns="http://www.w3.org/2000/svg" viewBox="0 0 132.34 43.56">
  <defs>
    <style>
      .cls-1 {
        fill: #ff9500;
      }

      .cls-1, .cls-2 {
        fill-rule: evenodd;
      }

      .cls-2, .cls-3 {
        fill: #fff;
      }
    </style>
  </defs>
  <title>Design elements-icons</title>
  <g>
    <path class="cls-1" d="M13.83,15.68V0h4.88V15.68Zm10.28,2.44V23H6.1a6.09,6.09,0,0,1-4.3-1.79h0A6.12,6.12,0,0,1,0,16.9V9.76H4.88V16.9A1.21,1.21,0,0,0,6.1,18.12ZM0,4.88V0H4.88V4.88ZM18.72,37.46a1.21,1.21,0,0,0,1.22,1.22H33.17a1.21,1.21,0,0,0,1.22-1.22V24.22A1.21,1.21,0,0,0,33.17,23H29V18.12h4.18a6.13,6.13,0,0,1,6.1,6.1V37.46a6.09,6.09,0,0,1-1.79,4.3h0a6.09,6.09,0,0,1-4.3,1.79H19.94a6.13,6.13,0,0,1-6.1-6.1v-12h4.88Z"/>
    <path class="cls-2" d="M66.33,36.93v-.56H61.22v.56c0,2.17-1,2.33-3,2.33-3,0-3.1-1.07-3.1-3.85V32.52c0-2.65.27-3.5,3.1-3.5,1.66,0,2.83.11,3,1.76v.72H66.3v-.72c0-5.56-2.49-6.07-7.57-6.07-5.45,0-8.74.88-8.74,7v4.81c0,6.76,3.69,7,8.74,7,2.14,0,4.2,0,5.88-1.36s1.71-3.23,1.71-5.27"/>
    <path class="cls-2" d="M79.9,36.61H75.3l2.25-8h.05Zm1,3.61,1,3.18h5.05L81.27,24.85H73.75L68.19,43.4h5.13l.94-3.18Z"/>
    <polygon class="cls-2" points="93.93 29.18 94.06 29.18 98.82 43.4 103.1 43.4 107.81 29.18 107.97 29.18 107.48 43.4 112.43 43.4 112.43 24.85 104.38 24.85 101.02 36.51 100.86 36.51 97.33 24.85 89.47 24.85 89.47 43.4 94.41 43.4 93.93 29.18"/>
    <path class="cls-2" d="M121.65,34.34V29.15H125c2,0,2.25.59,2.25,2.51,0,2.38-.29,2.67-2.25,2.67Zm0,9.06V38.65H126c5.19,0,6.34-1.76,6.34-7,0-4.87-1.74-6.82-6.34-6.82h-9.3V43.4Z"/>
    <rect class="cls-3" x="49.99" width="4.95" height="18.55"/>
    <polygon class="cls-2" points="69.15 4.3 75.54 4.3 75.54 0 58.02 0 58.02 4.3 64.2 4.3 64.2 18.55 69.15 18.55 69.15 4.3"/>
  </g>
</svg>
