<svg xmlns="http://www.w3.org/2000/svg" viewBox="0 0 28.05 29.06">
  <defs>
    <style>
      .cls-1 {
        fill: #0e2766;
      }
    </style>
  </defs>
  <title>-</title>
  <g id="Layer_2" data-name="Layer 2">
    <path class="cls-1" d="M26.58,29.06a1.48,1.48,0,0,1-1.07-.46l-7-7.31a11.73,11.73,0,1,1,2.18-2l7,7.26a1.48,1.48,0,0,1-1.06,2.5Zm-.33-1.16h0Zm.65-.62Zm0,0h0ZM11.72,3a8.77,8.77,0,1,0,8.77,8.77A8.78,8.78,0,0,0,11.72,3Z"/>
  </g>
</svg>
