<svg xmlns="http://www.w3.org/2000/svg" viewBox="0 0 91.84 77.09">
  <defs>
    <style>
      .cls-1 {
        fill: #ff9500;
      }
    </style>
  </defs>
  <title> </title>
  <g id="Layer_2" data-name="Layer 2">
    <path class="cls-1" d="M39.1,17.3c-6,.85-10.25,3-13,6.41S22,31.82,22,38H39.1V77.09H0V43.35C-.83,17.09,18.39-.42,39.1,0Zm52.74,0c-6,.85-10.25,3-13,6.41S74.76,31.82,74.76,38H91.84V77.09H52.77V43.35C51.91,17.09,71.13-.42,91.84,0Z"/>
  </g>
</svg>
